<svg xmlns="http://www.w3.org/2000/svg" xmlns:xlink="http://www.w3.org/1999/xlink" viewBox="2561 -2814 24 24">
  <defs>
    <style>
      .cls-1 {
        fill: url(#linear-gradient);
      }
    </style>
    <linearGradient id="linear-gradient" x2="1" y2="1" gradientUnits="objectBoundingBox">
      <stop offset="0" stop-color="#25afb4"/>
      <stop offset="1" stop-color="#9b9abc"/>
    </linearGradient>
  </defs>
  <path id="Path_469" data-name="Path 469" class="cls-1" d="M12,0A12,12,0,1,0,24,12,12.035,12.035,0,0,0,12,0Zm5.52,16.08a2.627,2.627,0,0,1-1.08,1.2,4.193,4.193,0,0,1-1.56.6,8.186,8.186,0,0,0-1.44.12v1.68H11.4V18H10.2v1.56H8.28V18H6.12V16.08h1.8V8.16H6.12V6.12H8.16V4.44h1.92V6.12h1.2V4.44H13.2v1.8a4.5,4.5,0,0,1,1.32.12A3.077,3.077,0,0,1,16.68,7.8a2.559,2.559,0,0,1,.36,1.44,2.6,2.6,0,0,1-1.68,2.52,3.68,3.68,0,0,1,1.68,1.08,2.948,2.948,0,0,1,.6,1.8A1.544,1.544,0,0,1,17.52,16.08ZM14.4,12.96a6.555,6.555,0,0,0-2.16-.12H10.32v3.12h2.16a7.922,7.922,0,0,0,1.68-.12,1.215,1.215,0,0,0,.84-.48,1.363,1.363,0,0,0,.36-.96,2.824,2.824,0,0,0-.24-.96A3.734,3.734,0,0,0,14.4,12.96Zm-.72-2.16a1.091,1.091,0,0,0,.96-.48A1.363,1.363,0,0,0,15,9.36a1.089,1.089,0,0,0-.36-.84,1.3,1.3,0,0,0-.84-.36H10.32V10.8h3.36Z" transform="translate(2561 -2814)"/>
</svg>
