<svg xmlns="http://www.w3.org/2000/svg" viewBox="3211 4966 22.5 21.3">
  <defs>
    <style>
      .cls-1 {
        fill: #858a9f;
      }
    </style>
  </defs>
  <path id="Path_510" data-name="Path 510" class="cls-1" d="M9.6,21.3,0,10.7,9.6,0l1.5,1.3L3.6,9.7H22.5v2H3.6L11.1,20Z" transform="translate(3211 4966)"/>
</svg>
