<svg xmlns="http://www.w3.org/2000/svg" viewBox="1527 -2899 24 20.953">
  <defs>
    <style>
      .cls-1 {
        fill: #858a9f;
      }
    </style>
  </defs>
  <path id="Path_441" data-name="Path 441" class="cls-1" d="M4.8,12.717a3.45,3.45,0,0,1,2.963,1.7.682.682,0,1,0,1.177-.689,4.8,4.8,0,1,0-.07,4.973.683.683,0,1,0-1.158-.727A3.434,3.434,0,1,1,4.8,12.717Zm14.245,4.252H11.92a.684.684,0,0,0,0,1.369h7.125a.684.684,0,1,0,0-1.369Zm4.27-3H11.92a.684.684,0,1,0,0,1.369h11.4a.684.684,0,0,0,0-1.369ZM11.92,3.984h11.4a.684.684,0,0,0,0-1.369H11.92a.684.684,0,1,0,0,1.369Zm0,2.991h7.125a.684.684,0,1,0,0-1.369H11.92a.684.684,0,1,0,0,1.369ZM4.8,0A4.8,4.8,0,1,0,9.6,4.8,4.8,4.8,0,0,0,4.8,0Zm0,8.231A3.436,3.436,0,1,1,8.236,4.8,3.441,3.441,0,0,1,4.8,8.231Z" transform="translate(1527 -2899)"/>
</svg>
